Chapter 5 dplyr Package | R Tutorial for MKT 4320
…
The result is a data frame with one row, where each column represents a summary
statistic for the full dataset.

5.6 Grouped summaries with group_by() and summarise()

Often, you want to compute summaries separately for different groups, such as
customer segments or demographic categories.

In dplyr, this is done by combining group_by() with summarize().

directmktg %>%
  group_by(gender)

# A tibble: 400 × 8
# Groups:   gender [2]
     userid   age buy   gender salary age10 buy_binary salary_cat
      <dbl> <dbl> <fct> <fct>   <dbl> <dbl>      <dbl> <chr>     
 1 15624510    19 No    Male       19   1.9          0 Low       
 2 15810944    35 No    Male       20   3.5          0 Low       
 3 15668575    26 No    Female     43   2.6          0 Low       
 4 15603246    27 No    Female     57   2.7          0 Med       
 5 15804002    19 No    Male       76   1.9          0 Med       
 6 15728773    27 No    Male       58   2.7          0 Med       
 7 15598044    27 No    Female     84   2.7          0 High      
 8 15694829    32 Yes   Female    150   3.2          1 High      
 9 15600575    25 No    Male       33   2.5          0 Low       
10 15727311    35 No    Female     65   3.5          0 Med       
# ℹ 390 more rows
…
